<svg width="19" height="19" viewBox="0 0 19 19" fill="none" xmlns="http://www.w3.org/2000/svg">
<path d="M7.4395 14.7995H0.886841" stroke="#050152" stroke-width="1.3587" stroke-linecap="round" stroke-linejoin="round"/>
<path fill-rule="evenodd" clip-rule="evenodd" d="M17.4039 14.7995C17.4039 16.2402 16.236 17.4082 14.7952 17.4082C13.3545 17.4082 12.1865 16.2402 12.1865 14.7995C12.1865 13.3577 13.3545 12.1908 14.7952 12.1908C16.236 12.1908 17.4039 13.3577 17.4039 14.7995Z" stroke="#050152" stroke-width="1.3587" stroke-linecap="round" stroke-linejoin="round"/>
<path d="M10.8502 4.17946H17.4039" stroke="#050152" stroke-width="1.3587" stroke-linecap="round" stroke-linejoin="round"/>
<path fill-rule="evenodd" clip-rule="evenodd" d="M0.886353 4.17948C0.886353 5.6213 2.0543 6.78818 3.49505 6.78818C4.9358 6.78818 6.10374 5.6213 6.10374 4.17948C6.10374 2.73873 4.9358 1.57079 3.49505 1.57079C2.0543 1.57079 0.886353 2.73873 0.886353 4.17948Z" stroke="#050152" stroke-width="1.3587" stroke-linecap="round" stroke-linejoin="round"/>
</svg>
